﻿Сборка начата 10.11.2014 9:47:26.
     1>Проект "C:\Users\Roman\Desktop\Repos\galaxywars-sfml\sfml-galaxy_wars\sfml-galaxy_wars.vcxproj" в узле 2 (целевые объекты Build).
     1>ClCompile:
         C:\Program Files (x86)\Microsoft Visual Studio 13.0\VC\bin\CL.exe /c /I"C:\SFML-2.1\include" /ZI /nologo /W3 /WX- /sdl /Od /Oy- /D SFML_DYNAMIC /D WIN32 /D _WINDOWS /D _MBCS /Gm /EHsc /RTC1 /MDd /GS /fp:precise /Zc:wchar_t /Zc:forScope /Fo"Debug\\" /Fd"Debug\vc120.pdb" /Gd /TP /analyze- /errorReport:prompt Planet.cpp
         Planet.cpp
     1>c:\users\roman\desktop\repos\galaxywars-sfml\sfml-galaxy_wars\planet.h(20): warning C4584: CPlanet: базовый класс "CObj" уже является базовым классом для "CSpaceship"
                 c:\users\roman\desktop\repos\galaxywars-sfml\sfml-galaxy_wars\obj.h(11): см. объявление "CObj"
                 c:\users\roman\desktop\repos\galaxywars-sfml\sfml-galaxy_wars\spaceship.h(11): см. объявление "CSpaceship"
       Link:
         C:\Program Files (x86)\Microsoft Visual Studio 13.0\VC\bin\link.exe /ERRORREPORT:PROMPT /OUT:"C:\Users\Roman\Desktop\Repos\galaxywars-sfml\Debug\sfml-galaxy_wars.exe" /INCREMENTAL /NOLOGO /LIBPATH:"C:\SFML-2.1\lib" "sfml-graphics.lib" "sfml-window.lib" "sfml-system.lib" "sfml-audio.lib" kernel32.lib user32.lib gdi32.lib winspool.lib comdlg32.lib advapi32.lib shell32.lib ole32.lib oleaut32.lib uuid.lib odbc32.lib odbccp32.lib kernel32.lib user32.lib gdi32.lib winspool.lib comdlg32.lib advapi32.lib shell32.lib ole32.lib oleaut32.lib uuid.lib odbc32.lib odbccp32.lib /MANIFEST /MANIFESTUAC:"level='asInvoker' uiAccess='false'" /manifest:embed /DEBUG /PDB:"C:\Users\Roman\Desktop\Repos\galaxywars-sfml\Debug\sfml-galaxy_wars.pdb" /TLBID:1 /DYNAMICBASE /NXCOMPAT /IMPLIB:"C:\Users\Roman\Desktop\Repos\galaxywars-sfml\Debug\sfml-galaxy_wars.lib" /MACHINE:X86 Debug\Battleship.obj
         Debug\main.obj
         Debug\Obj.obj
         Debug\Planet.obj
         Debug\Radarship.obj
         Debug\Spaceship.obj
         Debug\Transportship.obj
         sfml-galaxy_wars.vcxproj -> C:\Users\Roman\Desktop\Repos\galaxywars-sfml\Debug\sfml-galaxy_wars.exe
     1>Сборка проекта "C:\Users\Roman\Desktop\Repos\galaxywars-sfml\sfml-galaxy_wars\sfml-galaxy_wars.vcxproj" завершена (целевые объекты Build).

Сборка успешно завершена.

Затраченное время: 00:00:01.59
